{
    "baseUrl": "http://localhost:8080/kinda/",
    "ignoreTestFiles": "**/examples/*.js",
    "reporter": "mochawesome",
    "reporterOptions": {
        "overwrite": false,
        "html": false,
        "json": true
    }
}
